\BOOKMARK [2][-]{section*.1}{\376\377\000R\000\040\000M\000a\000r\000k\000d\000o\000w\000n}{}% 1
\BOOKMARK [2][-]{section*.2}{\376\377\000I\000n\000c\000l\000u\000d\000i\000n\000g\000\040\000P\000l\000o\000t\000s}{}% 2
\BOOKMARK [1][-]{section*.3}{\376\377\000I\000n\000t\000i\000a\000l\000i\000z\000a\000t\000i\000o\000n}{}% 3
\BOOKMARK [1][-]{section*.4}{\376\377\000S\000i\000m\000p\000l\000e\000\040\000L\000i\000n\000e\000a\000r\000\040\000M\000o\000d\000e\000l}{}% 4
\BOOKMARK [2][-]{section*.5}{\376\377\000M\000o\000d\000e\000l\000\040\000D\000i\000a\000g\000n\000o\000s\000t\000i\000c\000s}{section*.4}% 5
\BOOKMARK [3][-]{section*.6}{\376\377\000L\000i\000n\000e\000a\000r\000i\000t\000y}{section*.5}% 6
\BOOKMARK [3][-]{section*.7}{\376\377\000N\000e\000a\000r\000l\000y\000\040\000N\000o\000r\000m\000a\000l\000\040\000R\000e\000s\000i\000d\000u\000a\000l\000s}{section*.5}% 7
\BOOKMARK [3][-]{section*.8}{\376\377\000C\000o\000n\000s\000t\000a\000n\000t\000\040\000V\000a\000r\000i\000a\000n\000c\000e}{section*.5}% 8
\BOOKMARK [1][-]{section*.9}{\376\377\000M\000u\000l\000t\000i\000p\000l\000e\000\040\000L\000i\000n\000e\000a\000r\000\040\000R\000e\000g\000r\000e\000s\000s\000i\000o\000n}{}% 9
