""
"Test Method","UG Lab Glass 3 Pt Bend mm_N.msm"
"Sample I. D.","AR.mss"
"Specimen Number","5"

"Load (N)","Crosshead (mm)"

-1.1,0.00000
-1.8,0.00200
-1.3,0.00200
-2.7,0.00400
-2.4,0.00400
-2.6,0.00400
0.4,0.00600
-0.2,0.00600
-1.8,0.00600
-2.0,0.00800
-1.7,0.00800
-1.0,0.01000
-0.9,0.01000
-1.5,0.01200
-2.0,0.01200
-2.0,0.01200
-1.4,0.01400
0.8,0.01400
-1.4,0.01600
-0.4,0.01600
-1.3,0.01800
1.0,0.01800
0.2,0.01800
-0.5,0.02000
-1.9,0.02000
-3.2,0.02000
-3.4,0.02200
1.2,0.02200
-0.5,0.02400
-1.4,0.02400
-2.3,0.02600
0.2,0.02600
0.6,0.02800
1.6,0.02800
0.3,0.02800
-1.9,0.03000
0.9,0.03000
-0.7,0.03000
-0.2,0.03200
-1.6,0.03200
-2.2,0.03400
-1.2,0.03400
-1.8,0.03600
-2.2,0.03600
0.3,0.03600
-0.7,0.03800
-0.7,0.03800
0.1,0.04000
-1.6,0.04000
-1.1,0.04200
0.8,0.04200
-2.7,0.04200
-2.4,0.04400
-1.8,0.04400
-1.1,0.04600
-2.6,0.04600
-3.2,0.04600
-2.2,0.04800
-1.6,0.04800
-0.8,0.05000
1.3,0.05000
-1.0,0.05200
0.8,0.05200
-2.0,0.05200
-0.3,0.05400
-2.8,0.05400
-2.6,0.05600
-2.0,0.05600
-2.1,0.05800
-1.1,0.05800
-0.8,0.05800
-0.5,0.06000
0.6,0.06000
-2.4,0.06000
0.3,0.06200
-0.6,0.06200
-0.3,0.06400
0.4,0.06400
-0.3,0.06600
-0.9,0.06600
-1.3,0.06800
-1.3,0.06800
-2.6,0.06800
-1.8,0.07000
-1.9,0.07000
-1.4,0.07200
-1.6,0.07200
-1.5,0.07400
-0.1,0.07400
-0.1,0.07400
-1.7,0.07600
-0.9,0.07600
-2.5,0.07600
1.8,0.07800
-0.7,0.07800
-2.0,0.08000
-2.7,0.08000
-0.8,0.08200
0.8,0.08200
-0.8,0.08400
0.6,0.08400
-0.2,0.08400
-1.8,0.08600
-0.9,0.08600
-2.3,0.08800
-1.7,0.08800
-1.9,0.09000
-1.8,0.09000
-2.0,0.09000
-0.2,0.09200
-2.5,0.09200
-0.4,0.09200
-0.6,0.09400
1.6,0.09400
-0.9,0.09600
-0.6,0.09600
-0.7,0.09800
-3.3,0.09800
-1.8,0.10000
-1.3,0.10000
-1.2,0.10000
-3.3,0.10200
-4.1,0.10200
-2.1,0.10200
0.2,0.10400
0.7,0.10600
-1.5,0.10600
-1.7,0.10600
-0.6,0.10800
0.9,0.10800
1.8,0.10800
-0.7,0.11000
-1.0,0.11000
-0.7,0.11200
-1.7,0.11200
-0.3,0.11400
-1.1,0.11400
-2.0,0.11600
-2.3,0.11600
0.2,0.11600
0.7,0.11800
-1.5,0.11800
-0.3,0.11800
-1.9,0.12000
-0.4,0.12000
0.3,0.12200
-0.9,0.12200
-1.3,0.12400
-1.4,0.12400
0.6,0.12400
-1.1,0.12600
-0.3,0.12600
-1.0,0.12600
-1.8,0.12800
1.2,0.12800
0.5,0.13000
-1.2,0.13000
-1.1,0.13200
-3.0,0.13200
-0.8,0.13200
0.6,0.13400
-1.8,0.13400
-2.0,0.13600
-3.9,0.13600
-2.8,0.13800
-1.1,0.13800
-1.3,0.13800
-1.0,0.14000
-1.4,0.14000
-0.9,0.14200
0.6,0.14200
-1.0,0.14200
-0.9,0.14400
-2.1,0.14400
-0.2,0.14600
-1.0,0.14600
-0.4,0.14800
-1.2,0.14800
-0.9,0.14800
-0.3,0.15000
0.2,0.15000
-0.9,0.15000
1.1,0.15200
0.1,0.15200
-1.1,0.15400
-0.5,0.15400
-0.9,0.15600
-0.6,0.15600
-1.4,0.15600
-1.7,0.15800
-2.0,0.15800
-0.4,0.16000
-0.3,0.16000
-0.8,0.16200
-1.6,0.16200
-0.6,0.16200
0.2,0.16400
-0.7,0.16400
-3.6,0.16400
-3.7,0.16600
-2.4,0.16600
-2.3,0.16800
-2.3,0.16800
-2.0,0.17000
-2.7,0.17000
-2.5,0.17200
-1.6,0.17200
-2.0,0.17200
-1.3,0.17400
-3.0,0.17400
-1.8,0.17400
-0.6,0.17600
-0.8,0.17800
-1.0,0.17800
-3.0,0.17800
-2.3,0.18000
-2.2,0.18000
-1.2,0.18000
-1.4,0.18200
-0.8,0.18200
-0.9,0.18400
-0.3,0.18400
-0.5,0.18600
-2.2,0.18600
-0.8,0.18800
-1.6,0.18800
-0.2,0.18800
-1.5,0.19000
-2.5,0.19000
-2.8,0.19000
-2.8,0.19200
-0.6,0.19200
0.2,0.19400
0.7,0.19400
-1.6,0.19600
-3.6,0.19600
0.7,0.19600
0.1,0.19800
-1.3,0.19800
-1.4,0.20000
-1.8,0.20000
-0.8,0.20200
-1.0,0.20200
-0.6,0.20200
-1.5,0.20400
-0.8,0.20400
-0.5,0.20600
-1.4,0.20600
-0.3,0.20600
-2.9,0.20800
-0.6,0.20800
-0.4,0.21000
-1.0,0.21000
-1.0,0.21200
-2.2,0.21200
-3.2,0.21200
-3.5,0.21400
-1.6,0.21400
-0.1,0.21600
-0.6,0.21600
-1.6,0.21800
-2.0,0.21800
-0.2,0.21800
-1.0,0.22000
-4.3,0.22000
-3.5,0.22000
-3.2,0.22200
-2.8,0.22200
-2.7,0.22400
-2.4,0.22400
-1.9,0.22600
-1.8,0.22600
0.8,0.22800
-3.1,0.22800
-1.8,0.22800
-3.9,0.23000
-2.0,0.23000
-0.5,0.23000
-2.7,0.23200
-2.3,0.23200
-1.1,0.23400
-2.6,0.23400
-1.8,0.23600
-1.8,0.23600
-2.3,0.23600
-2.4,0.23800
-2.9,0.23800
-0.1,0.24000
-0.8,0.24000
-1.8,0.24200
-1.9,0.24200
-5.1,0.24200
-3.1,0.24400
-1.5,0.24400
-2.0,0.24400
-2.1,0.24600
-3.4,0.24600
-2.7,0.24800
1.4,0.24800
-0.5,0.25000
0.4,0.25000
-1.8,0.25200
-0.3,0.25200
1.0,0.25200
0.8,0.25400
-1.1,0.25400
0.5,0.25400
2.0,0.25600
3.6,0.25600
1.4,0.25800
3.1,0.25800
3.3,0.26000
3.4,0.26000
3.7,0.26000
4.0,0.26200
2.8,0.26200
4.5,0.26400
5.8,0.26400
6.6,0.26600
5.0,0.26600
5.1,0.26600
5.4,0.26800
3.1,0.26800
7.4,0.27000
7.8,0.27000
8.8,0.27000
6.6,0.27200
7.5,0.27200
10.1,0.27400
9.8,0.27400
11.2,0.27600
10.2,0.27600
10.2,0.27600
10.7,0.27800
10.5,0.27800
10.8,0.28000
10.8,0.28000
10.0,0.28200
11.5,0.28200
11.7,0.28200
11.6,0.28400
13.9,0.28400
13.2,0.28400
12.4,0.28600
14.9,0.28600
14.3,0.28800
13.8,0.28800
14.5,0.29000
13.4,0.29000
15.9,0.29200
14.5,0.29200
17.7,0.29200
16.4,0.29400
15.3,0.29400
18.2,0.29400
18.2,0.29600
17.6,0.29600
16.5,0.29800
16.2,0.29800
17.9,0.30000
18.2,0.30000
19.7,0.30000
20.4,0.30200
19.4,0.30200
19.5,0.30400
21.8,0.30400
21.8,0.30600
22.1,0.30600
21.5,0.30600
22.4,0.30800
19.9,0.30800
21.4,0.31000
21.5,0.31000
20.7,0.31000
22.8,0.31200
22.6,0.31200
22.9,0.31400
23.7,0.31400
23.5,0.31600
26.2,0.31600
25.6,0.31600
27.2,0.31800
26.2,0.31800
27.8,0.32000
26.1,0.32000
26.8,0.32200
26.7,0.32200
26.5,0.32200
26.9,0.32400
28.0,0.32400
28.2,0.32400
30.0,0.32600
29.8,0.32600
30.6,0.32800
28.8,0.32800
31.3,0.33000
30.6,0.33000
28.0,0.33200
30.0,0.33200
31.1,0.33200
33.1,0.33400
31.9,0.33400
33.3,0.33400
31.9,0.33600
32.4,0.33600
34.4,0.33800
32.7,0.33800
34.1,0.34000
34.5,0.34000
35.3,0.34000
35.8,0.34200
36.8,0.34200
35.3,0.34400
34.9,0.34400
35.5,0.34600
35.1,0.34600
37.6,0.34600
36.8,0.34800
36.9,0.34800
37.0,0.34800
39.5,0.35000
39.2,0.35000
39.2,0.35200
39.1,0.35200
39.3,0.35400
39.6,0.35400
41.5,0.35600
41.1,0.35600
38.8,0.35600
40.5,0.35800
39.2,0.35800
42.8,0.35800
42.5,0.36000
42.8,0.36000
42.7,0.36200
42.9,0.36200
45.8,0.36400
42.7,0.36400
44.6,0.36400
42.9,0.36600
46.3,0.36600
45.9,0.36800
44.1,0.36800
45.5,0.37000
44.9,0.37000
46.2,0.37000
48.0,0.37200
45.4,0.37200
47.7,0.37400
49.4,0.37400
48.9,0.37400
47.7,0.37600
48.2,0.37600
49.5,0.37800
49.0,0.37800
48.7,0.38000
49.2,0.38000
51.9,0.38000
51.0,0.38200
51.4,0.38200
50.8,0.38400
53.8,0.38400
52.3,0.38600
53.7,0.38600
53.6,0.38600
53.5,0.38800
52.4,0.38800
52.7,0.38800
53.3,0.39000
53.3,0.39000
55.8,0.39200
57.5,0.39200
56.9,0.39400
58.8,0.39400
57.7,0.39600
58.2,0.39600
57.3,0.39600
58.1,0.39800
55.9,0.39800
57.3,0.39800
58.2,0.40000
58.2,0.40200
58.0,0.40200
58.7,0.40200
60.0,0.40400
59.7,0.40400
57.7,0.40400
59.4,0.40600
60.9,0.40600
61.4,0.40800
62.7,0.40800
59.7,0.41000
62.8,0.41000
62.6,0.41200
63.2,0.41200
64.7,0.41200
64.0,0.41400
64.5,0.41400
65.7,0.41400
65.8,0.41600
65.9,0.41600
64.8,0.41800
66.1,0.41800
66.8,0.42000
65.7,0.42000
66.1,0.42000
65.4,0.42200
66.5,0.42200
66.2,0.42400
66.7,0.42400
67.5,0.42600
67.8,0.42600
69.3,0.42600
69.4,0.42800
70.4,0.42800
69.5,0.43000
69.0,0.43000
70.4,0.43000
71.6,0.43200
72.3,0.43200
72.7,0.43400
72.4,0.43400
71.4,0.43600
72.2,0.43600
70.8,0.43600
73.5,0.43800
72.6,0.43800
73.2,0.44000
75.6,0.44000
75.2,0.44200
74.4,0.44200
73.2,0.44200
74.6,0.44400
74.3,0.44400
74.5,0.44400
76.4,0.44600
75.8,0.44600
74.8,0.44800
78.3,0.44800
77.8,0.45000
78.1,0.45000
78.4,0.45000
78.9,0.45200
77.7,0.45200
78.8,0.45400
77.8,0.45400
78.3,0.45400
78.3,0.45600
79.8,0.45600
82.5,0.45800
81.2,0.45800
81.4,0.46000
80.5,0.46000
81.7,0.46000
84.0,0.46200
83.0,0.46200
82.9,0.46200
81.9,0.46400
83.9,0.46600
85.9,0.46600
83.1,0.46600
84.8,0.46800
84.8,0.46800
82.6,0.46800
84.3,0.47000
85.1,0.47000
85.8,0.47200
86.9,0.47200
87.3,0.47400
86.1,0.47400
87.1,0.47600
87.7,0.47600
87.9,0.47600
88.6,0.47800
88.7,0.47800
89.5,0.47800
87.0,0.48000
90.0,0.48000
90.0,0.48200
88.9,0.48200
89.6,0.48400
91.1,0.48400
91.3,0.48400
92.9,0.48600
92.9,0.48600
90.9,0.48800
91.3,0.48800
91.2,0.49000
92.0,0.49000
94.9,0.49000
94.4,0.49200
94.5,0.49200
94.0,0.49200
95.9,0.49400
95.9,0.49400
96.0,0.49600
98.7,0.49600
97.1,0.49800
96.2,0.49800
96.3,0.50000
98.1,0.50000
97.6,0.50000
98.3,0.50200
101.2,0.50200
96.5,0.50200
100.2,0.50400
100.4,0.50600
99.1,0.50600
100.5,0.50600
100.0,0.50800
100.4,0.50800
100.3,0.50800
101.5,0.51000
101.9,0.51000
101.7,0.51200
102.8,0.51200
101.9,0.51400
102.2,0.51400
102.2,0.51600
103.2,0.51600
106.5,0.51600
105.1,0.51800
107.6,0.51800
105.8,0.51800
105.0,0.52000
107.6,0.52000
107.3,0.52200
107.5,0.52200
106.2,0.52400
105.2,0.52400
107.1,0.52400
109.2,0.52600
109.0,0.52600
109.7,0.52800
110.5,0.52800
110.3,0.53000
110.8,0.53000
109.8,0.53000
111.9,0.53200
110.2,0.53200
111.0,0.53200
112.2,0.53400
111.6,0.53400
112.2,0.53600
114.2,0.53600
114.4,0.53800
115.7,0.53800
112.9,0.54000
114.9,0.54000
114.0,0.54000
114.2,0.54200
114.7,0.54200
115.8,0.54200
115.0,0.54400
116.7,0.54600
116.1,0.54600
117.9,0.54600
117.1,0.54800
116.1,0.54800
118.1,0.54800
117.8,0.55000
118.2,0.55000
119.8,0.55200
120.6,0.55200
117.9,0.55400
120.6,0.55400
119.5,0.55400
121.8,0.55600
121.1,0.55600
121.2,0.55800
120.9,0.55800
123.6,0.55800
124.2,0.56000
125.6,0.56000
122.5,0.56200
123.6,0.56200
125.3,0.56400
124.9,0.56400
124.4,0.56400
124.6,0.56600
121.6,0.56600
125.9,0.56800
124.0,0.56800
126.4,0.57000
124.5,0.57000
128.7,0.57000
128.2,0.57200
130.3,0.57200
128.4,0.57200
129.1,0.57400
129.0,0.57400
128.3,0.57600
130.2,0.57600
130.3,0.57800
129.3,0.57800
130.0,0.58000
130.7,0.58000
133.5,0.58000
132.2,0.58200
132.3,0.58200
133.4,0.58200
130.2,0.58400
132.8,0.58600
134.3,0.58600
134.4,0.58600
133.7,0.58800
132.2,0.58800
134.6,0.58800
136.0,0.59000
136.3,0.59000
135.0,0.59200
134.2,0.59200
135.1,0.59400
138.7,0.59400
137.1,0.59600
139.1,0.59600
138.0,0.59600
138.0,0.59800
138.5,0.59800
137.3,0.59800
137.7,0.60000
138.3,0.60000
138.2,0.60200
139.9,0.60200
141.7,0.60400
141.6,0.60400
142.0,0.60400
141.9,0.60600
142.9,0.60600
143.4,0.60800
142.7,0.60800
140.8,0.61000
144.5,0.61000
144.7,0.61200
144.4,0.61200
144.1,0.61200
143.2,0.61400
143.0,0.61400
145.5,0.61400
146.7,0.61600
146.1,0.61600
146.2,0.61800
147.3,0.61800
146.6,0.62000
147.2,0.62000
148.9,0.62000
148.0,0.62200
147.7,0.62200
151.0,0.62400
150.2,0.62400
151.0,0.62600
149.5,0.62600
149.2,0.62600
152.0,0.62800
152.4,0.62800
152.3,0.62800
154.2,0.63000
153.7,0.63000
151.7,0.63200
153.9,0.63200
152.8,0.63400
151.4,0.63400
151.6,0.63600
153.5,0.63600
156.1,0.63600
154.2,0.63800
154.0,0.63800
152.3,0.63800
154.6,0.64000
155.0,0.64200
155.3,0.64200
156.0,0.64200
155.6,0.64400
155.2,0.64400
157.4,0.64400
157.5,0.64600
156.3,0.64600
158.9,0.64800
157.9,0.64800
158.2,0.65000
160.5,0.65000
160.9,0.65000
160.1,0.65200
161.6,0.65200
162.4,0.65200
160.5,0.65400
161.9,0.65400
161.1,0.65600
160.1,0.65600
160.8,0.65800
162.2,0.65800
162.2,0.66000
163.1,0.66000
165.1,0.66000
165.6,0.66200
164.5,0.66200
164.8,0.66200
164.0,0.66400
164.6,0.66400
163.6,0.66600
165.5,0.66600
163.9,0.66800
166.1,0.66800
166.5,0.66800
167.9,0.67000
168.3,0.67000
170.2,0.67200
169.6,0.67200
169.4,0.67400
169.8,0.67400
170.7,0.67400
170.9,0.67600
169.0,0.67600
168.6,0.67600
168.9,0.67800
171.5,0.67800
172.4,0.68000
171.7,0.68000
172.7,0.68200
170.7,0.68200
172.6,0.68400
173.2,0.68400
174.9,0.68400
174.2,0.68600
174.7,0.68600
175.9,0.68600
174.3,0.68800
176.2,0.69000
174.8,0.69000
175.1,0.69000
178.8,0.69200
177.3,0.69200
180.1,0.69200
179.2,0.69400
178.9,0.69400
179.1,0.69600
180.0,0.69600
178.5,0.69800
179.2,0.69800
178.7,0.70000
181.0,0.70000
179.4,0.70000
181.1,0.70200
179.3,0.70200
181.6,0.70200
183.6,0.70400
183.2,0.70400
183.6,0.70600
183.9,0.70600
183.8,0.70800
183.3,0.70800
184.6,0.70800
184.9,0.71000
182.9,0.71000
184.4,0.71200
184.3,0.71200
187.5,0.71400
185.0,0.71400
185.9,0.71600
187.0,0.71600
186.0,0.71600
187.3,0.71800
187.6,0.71800
187.9,0.71800
190.3,0.72000
188.1,0.72000
189.2,0.72200
188.8,0.72200
189.0,0.72400
190.6,0.72400
189.3,0.72400
189.7,0.72600
190.4,0.72600
191.6,0.72800
-1.5,0.72800


