""
"Test Method","UG Lab Glass 3 Pt Bend mm_N.msm"
"Sample I. D.","Etched.mss"
"Specimen Number","5"

"Load (N)","Crosshead (mm)"

1.6,0.00000
1.3,0.00000
3.2,0.00000
-1.3,0.00200
1.8,0.00200
3.0,0.00400
0.4,0.00400
2.9,0.00600
1.3,0.00600
-0.7,0.00600
4.5,0.00800
3.8,0.00800
1.0,0.00800
0.6,0.01000
-0.1,0.01000
2.7,0.01200
3.7,0.01200
2.6,0.01400
1.4,0.01400
-0.8,0.01600
1.5,0.01600
1.1,0.01600
1.2,0.01800
1.3,0.01800
0.7,0.01800
1.7,0.02000
1.2,0.02000
1.9,0.02200
1.1,0.02200
-0.2,0.02400
-0.9,0.02400
0.3,0.02400
1.1,0.02600
1.6,0.02600
0.2,0.02800
0.2,0.02800
1.2,0.03000
1.4,0.03000
2.1,0.03000
2.4,0.03200
0.9,0.03200
1.7,0.03200
1.0,0.03400
0.3,0.03400
1.7,0.03600
-0.3,0.03600
2.7,0.03800
2.4,0.03800
4.1,0.04000
0.1,0.04000
1.4,0.04000
1.7,0.04200
0.8,0.04200
0.4,0.04200
0.5,0.04400
0.9,0.04400
1.7,0.04600
2.6,0.04600
2.8,0.04800
1.5,0.04800
1.8,0.04800
3.4,0.05000
3.0,0.05000
1.3,0.05200
1.1,0.05200
-0.9,0.05400
-0.3,0.05400
0.5,0.05400
-0.1,0.05600
-1.6,0.05600
-0.8,0.05800
1.3,0.05800
1.9,0.05800
1.4,0.06000
0.9,0.06000
0.9,0.06200
0.7,0.06200
2.7,0.06400
1.9,0.06400
1.3,0.06400
1.1,0.06600
0.8,0.06600
2.0,0.06800
1.3,0.06800
0.8,0.07000
-0.7,0.07000
-0.2,0.07000
1.7,0.07200
2.0,0.07200
3.1,0.07200
2.4,0.07400
1.1,0.07400
0.5,0.07600
0.1,0.07600
0.9,0.07800
0.9,0.07800
1.9,0.08000
3.5,0.08000
1.5,0.08000
3.2,0.08200
1.7,0.08200
1.3,0.08400
1.6,0.08400
2.2,0.08600
2.9,0.08600
0.3,0.08600
0.2,0.08800
0.5,0.08800
2.2,0.09000
2.1,0.09000
2.7,0.09000
-0.1,0.09200
0.6,0.09200
1.1,0.09400
2.6,0.09400
-1.1,0.09600
-0.5,0.09600
2.2,0.09600
0.5,0.09800
1.3,0.09800
1.5,0.09800
0.9,0.10000
1.2,0.10200
2.7,0.10200
2.8,0.10200
2.2,0.10400
-0.6,0.10400
0.9,0.10400
1.5,0.10600
0.4,0.10600
-0.4,0.10800
-1.5,0.10800
-0.5,0.11000
0.4,0.11000
-0.1,0.11000
1.3,0.11200
-0.9,0.11200
0.1,0.11400
2.5,0.11400
0.4,0.11400
2.9,0.11600
1.7,0.11600
1.2,0.11800
2.0,0.11800
-0.1,0.12000
-0.1,0.12000
0.1,0.12000
0.3,0.12200
-0.3,0.12200
1.3,0.12200
1.3,0.12400
-1.9,0.12600
0.0,0.12600
0.3,0.12600
2.4,0.12800
1.0,0.12800
0.5,0.12800
1.1,0.13000
0.1,0.13000
0.9,0.13200
0.9,0.13200
-0.5,0.13400
-0.1,0.13400
1.4,0.13600
0.9,0.13600
1.3,0.13600
0.8,0.13800
0.1,0.13800
0.6,0.13800
2.8,0.14000
2.6,0.14000
0.8,0.14200
-0.2,0.14200
-0.3,0.14400
1.0,0.14400
0.4,0.14400
0.2,0.14600
0.3,0.14600
-0.6,0.14800
1.9,0.14800
2.4,0.15000
3.2,0.15000
2.5,0.15000
1.5,0.15200
1.9,0.15200
0.9,0.15400
1.9,0.15400
2.6,0.15400
-0.3,0.15600
1.4,0.15600
1.1,0.15800
2.4,0.15800
1.6,0.16000
0.9,0.16000
2.6,0.16000
0.8,0.16200
2.8,0.16200
2.0,0.16200
2.2,0.16400
1.6,0.16600
0.7,0.16600
0.4,0.16600
-0.1,0.16800
0.3,0.16800
2.2,0.16800
1.9,0.17000
3.8,0.17000
1.7,0.17200
1.1,0.17200
0.5,0.17400
2.6,0.17400
1.4,0.17600
0.3,0.17600
0.7,0.17600
-0.7,0.17800
0.7,0.17800
-0.8,0.17800
-1.0,0.18000
0.8,0.18200
0.4,0.18200
0.6,0.18200
1.7,0.18400
1.5,0.18400
-0.4,0.18400
-0.8,0.18600
1.4,0.18600
1.7,0.18800
0.7,0.18800
0.2,0.19000
0.8,0.19000
1.1,0.19200
3.4,0.19200
1.2,0.19200
1.6,0.19400
1.1,0.19400
2.3,0.19400
2.7,0.19600
1.3,0.19600
1.6,0.19800
1.7,0.19800
2.7,0.20000
2.0,0.20000
-0.7,0.20000
1.3,0.20200
1.1,0.20200
0.3,0.20400
3.2,0.20400
3.2,0.20600
3.5,0.20600
2.0,0.20600
0.1,0.20800
1.7,0.20800
2.5,0.20800
-0.2,0.21000
0.1,0.21000
0.1,0.21200
-0.9,0.21200
1.5,0.21400
1.7,0.21400
2.9,0.21600
-0.8,0.21600
-0.9,0.21600
4.1,0.21800
2.3,0.21800
0.6,0.21800
1.4,0.22000
1.7,0.22000
0.8,0.22200
-0.5,0.22200
-0.3,0.22400
0.6,0.22400
1.9,0.22400
2.2,0.22600
2.1,0.22600
0.3,0.22800
1.2,0.22800
1.0,0.23000
1.9,0.23000
2.3,0.23000
0.4,0.23200
0.9,0.23200
-0.1,0.23200
2.9,0.23400
0.9,0.23400
2.1,0.23600
2.5,0.23600
2.9,0.23800
3.8,0.23800
3.9,0.24000
3.5,0.24000
4.8,0.24000
3.0,0.24200
6.8,0.24200
2.7,0.24200
3.3,0.24400
3.8,0.24400
4.4,0.24600
4.6,0.24600
5.7,0.24800
5.4,0.24800
7.6,0.24800
7.8,0.25000
7.3,0.25000
7.5,0.25200
10.0,0.25200
5.8,0.25400
6.7,0.25400
9.3,0.25400
8.3,0.25600
7.9,0.25600
9.3,0.25600
9.7,0.25800
11.1,0.25800
10.8,0.26000
11.4,0.26000
9.9,0.26200
9.8,0.26200
13.6,0.26400
11.1,0.26400
11.5,0.26400
12.5,0.26600
11.8,0.26600
13.8,0.26600
12.6,0.26800
13.9,0.27000
13.7,0.27000
12.1,0.27000
15.4,0.27200
14.7,0.27200
15.0,0.27200
14.7,0.27400
14.5,0.27400
13.8,0.27600
14.4,0.27600
16.6,0.27800
15.7,0.27800
16.1,0.28000
16.2,0.28000
20.1,0.28000
19.3,0.28200
19.8,0.28200
18.0,0.28200
18.7,0.28400
21.6,0.28600
19.3,0.28600
19.4,0.28600
19.4,0.28800
17.8,0.28800
20.5,0.28800
21.2,0.29000
20.1,0.29000
22.0,0.29200
22.5,0.29200
24.4,0.29400
23.9,0.29400
23.4,0.29600
23.7,0.29600
24.7,0.29600
24.0,0.29800
25.9,0.29800
23.0,0.29800
24.4,0.30000
22.1,0.30000
26.2,0.30200
27.2,0.30200
26.1,0.30400
27.6,0.30400
26.6,0.30400
28.2,0.30600
30.1,0.30600
28.7,0.30800
28.6,0.30800
30.1,0.31000
27.7,0.31000
30.2,0.31000
27.8,0.31200
28.3,0.31200
30.1,0.31400
31.2,0.31400
30.9,0.31400
32.6,0.31600
31.5,0.31600
31.7,0.31800
32.8,0.31800
32.9,0.32000
31.1,0.32000
31.8,0.32000
30.6,0.32200
31.7,0.32200
32.8,0.32400
34.2,0.32400
34.6,0.32600
35.6,0.32600
33.6,0.32600
37.0,0.32800
35.3,0.32800
35.8,0.32800
35.1,0.33000
34.7,0.33000
37.6,0.33200
36.5,0.33200
37.6,0.33400
38.6,0.33400
35.5,0.33600
37.9,0.33600
38.9,0.33600
39.4,0.33800
37.8,0.33800
38.1,0.33800
40.4,0.34000
38.6,0.34000
39.5,0.34200
40.4,0.34200
40.3,0.34400
39.4,0.34400
41.3,0.34400
43.0,0.34600
41.2,0.34600
42.4,0.34800
40.1,0.34800
44.3,0.35000
42.7,0.35000
43.0,0.35000
42.0,0.35200
42.2,0.35200
45.7,0.35200
43.5,0.35400
45.2,0.35400
44.9,0.35600
45.0,0.35600
46.9,0.35800
46.3,0.35800
46.7,0.36000
45.8,0.36000
47.3,0.36000
49.0,0.36200
48.4,0.36200
49.4,0.36200
48.3,0.36400
49.6,0.36600
49.3,0.36600
50.2,0.36600
50.6,0.36800
50.3,0.36800
52.3,0.36800
52.9,0.37000
52.6,0.37000
53.6,0.37200
51.7,0.37200
52.0,0.37400
52.7,0.37400
52.1,0.37400
52.0,0.37600
52.6,0.37600
53.8,0.37800
53.4,0.37800
54.5,0.37800
56.1,0.38000
55.8,0.38000
55.1,0.38200
56.3,0.38200
56.0,0.38400
56.3,0.38400
58.3,0.38400
55.8,0.38600
57.0,0.38600
59.1,0.38800
59.3,0.38800
58.3,0.39000
58.4,0.39000
58.3,0.39000
60.7,0.39200
58.8,0.39200
58.9,0.39200
60.1,0.39400
60.9,0.39400
61.4,0.39600
62.7,0.39600
61.5,0.39800
61.0,0.39800
60.7,0.40000
62.0,0.40000
61.3,0.40000
61.8,0.40200
61.2,0.40200
64.0,0.40200
64.1,0.40400
64.8,0.40400
64.3,0.40600
66.6,0.40600
65.1,0.40800
65.0,0.40800
65.8,0.40800
64.7,0.41000
64.3,0.41000
67.3,0.41200
66.4,0.41200
68.2,0.41400
70.4,0.41400
70.1,0.41400
67.5,0.41600
70.2,0.41600
70.5,0.41600
70.6,0.41800
69.3,0.41800
69.6,0.42000
69.6,0.42000
70.7,0.42200
71.2,0.42200
71.0,0.42400
71.9,0.42400
72.0,0.42400
74.2,0.42600
74.6,0.42600
72.6,0.42600
73.9,0.42800
71.7,0.43000
75.1,0.43000
74.3,0.43000
73.6,0.43200
73.4,0.43200
74.0,0.43200
75.5,0.43400
76.6,0.43400
76.7,0.43600
75.5,0.43600
77.4,0.43800
77.2,0.43800
78.9,0.44000
77.3,0.44000
77.4,0.44000
78.2,0.44200
76.4,0.44200
80.4,0.44200
77.9,0.44400
78.6,0.44400
77.9,0.44600
79.8,0.44600
79.9,0.44800
81.5,0.44800
80.9,0.44800
82.8,0.45000
82.0,0.45000
83.1,0.45200
83.2,0.45200
80.4,0.45400
81.6,0.45400
82.8,0.45400
83.4,0.45600
82.9,0.45600
83.6,0.45600
84.3,0.45800
83.9,0.45800
83.0,0.46000
86.5,0.46000
85.1,0.46200
87.7,0.46200
86.6,0.46400
87.7,0.46400
87.1,0.46400
89.3,0.46600
86.8,0.46600
86.5,0.46600
89.6,0.46800
88.3,0.47000
91.9,0.47000
89.6,0.47000
89.2,0.47200
89.6,0.47200
91.9,0.47200
92.1,0.47400
92.0,0.47400
90.2,0.47600
91.6,0.47600
94.3,0.47800
93.5,0.47800
91.7,0.48000
91.8,0.48000
96.0,0.48000
96.4,0.48200
95.1,0.48200
94.8,0.48200
95.6,0.48400
96.0,0.48600
96.0,0.48600
95.5,0.48600
96.9,0.48800
94.9,0.48800
97.1,0.48800
98.4,0.49000
95.7,0.49000
98.6,0.49200
98.1,0.49200
99.6,0.49400
100.8,0.49400
100.3,0.49600
99.2,0.49600
100.4,0.49600
99.5,0.49800
100.9,0.49800
100.1,0.49800
98.8,0.50000
100.9,0.50000
99.9,0.50200
101.3,0.50200
103.1,0.50400
104.0,0.50400
104.6,0.50400
102.1,0.50600
1.6,0.50600


