""
"Test Method","UG Lab Glass 3 Pt Bend mm_N.msm"
"Sample I. D.","IonExchange.mss"
"Specimen Number","1"

"Load (N)","Crosshead (mm)"

0.2,0.00200
-1.2,0.00200
0.8,0.00400
1.0,0.00600
-2.9,0.00800
2.2,0.01000
-0.9,0.01200
2.5,0.01400
-0.5,0.01400
1.0,0.01600
0.7,0.01800
0.9,0.02000
0.1,0.02200
1.1,0.02400
0.8,0.02400
1.6,0.02600
0.8,0.02800
1.3,0.03000
0.7,0.03200
-0.3,0.03200
0.1,0.03400
0.7,0.03600
1.1,0.03800
-0.9,0.04000
-0.8,0.04200
0.9,0.04200
2.3,0.04600
0.4,0.04600
2.1,0.04800
0.8,0.05000
1.2,0.05200
-0.5,0.05400
0.3,0.05600
0.8,0.05600
0.8,0.05800
1.0,0.06000
2.2,0.06200
-1.5,0.06400
2.3,0.06400
-0.1,0.06600
0.3,0.06800
0.6,0.07000
3.6,0.07200
0.5,0.07400
0.1,0.07400
-2.2,0.07600
1.6,0.07800
-0.2,0.08000
1.2,0.08200
1.1,0.08400
0.7,0.08600
-0.8,0.08600
-0.4,0.08800
2.4,0.09000
0.3,0.09200
0.0,0.09400
-0.4,0.09600
0.6,0.09600
-1.3,0.09800
1.4,0.10000
1.5,0.10200
1.4,0.10400
0.4,0.10400
0.7,0.10600
0.4,0.10800
1.1,0.11000
0.7,0.11200
1.6,0.11400
-1.2,0.11400
1.9,0.11600
-0.5,0.11800
-0.8,0.12000
-0.2,0.12200
2.0,0.12400
0.7,0.12600
-0.4,0.12600
0.5,0.12800
2.0,0.13000
-0.1,0.13200
-0.8,0.13400
0.0,0.13600
-0.6,0.13600
0.8,0.13800
-0.4,0.14000
-0.2,0.14200
0.9,0.14400
0.4,0.14400
1.0,0.14600
1.1,0.14800
2.9,0.15000
1.5,0.15200
-1.3,0.15400
-0.3,0.15400
0.0,0.15600
0.1,0.15800
1.7,0.16000
1.4,0.16200
1.7,0.16400
0.8,0.16600
-0.2,0.16800
1.8,0.16800
-0.3,0.17000
2.3,0.17200
-0.3,0.17400
0.9,0.17600
-0.6,0.17600
0.5,0.17800
1.9,0.18000
-0.3,0.18200
-1.2,0.18400
0.7,0.18600
-0.9,0.18600
1.1,0.18800
2.3,0.19000
0.4,0.19200
2.5,0.19400
-0.9,0.19600
-0.5,0.19800
-0.2,0.19800
-3.0,0.20000
1.4,0.20200
1.0,0.20400
0.9,0.20600
-0.5,0.20800
-0.8,0.20800
0.5,0.21000
0.2,0.21200
0.6,0.21400
1.5,0.21600
-0.9,0.21600
0.8,0.21800
-0.8,0.22000
-1.8,0.22200
0.9,0.22400
1.2,0.22400
0.0,0.22600
-1.0,0.22800
0.0,0.23000
1.9,0.23200
-0.1,0.23400
1.1,0.23400
3.1,0.23800
1.5,0.23800
1.5,0.24000
0.2,0.24200
-0.6,0.24400
1.6,0.24600
2.2,0.24600
2.8,0.24800
0.5,0.25000
0.9,0.25200
-0.9,0.25400
0.1,0.25600
2.0,0.25600
0.0,0.25800
-0.8,0.26000
-0.4,0.26200
0.3,0.26400
1.2,0.26400
0.7,0.26600
1.5,0.26800
0.9,0.27000
2.0,0.27200
-1.9,0.27400
1.1,0.27400
-1.2,0.27600
0.8,0.27800
-0.4,0.28000
-0.4,0.28200
0.6,0.28400
0.2,0.28600
2.5,0.28600
0.6,0.28800
0.4,0.29000
0.5,0.29200
-0.3,0.29400
0.5,0.29600
1.7,0.29600
1.1,0.29800
1.4,0.30000
1.4,0.30200
1.1,0.30400
1.0,0.30400
-0.7,0.30600
0.3,0.30800
1.2,0.31000
0.3,0.31200
2.1,0.31400
-0.1,0.31400
2.2,0.31600
-0.5,0.31800
-1.7,0.32000
1.2,0.32200
1.4,0.32400
0.2,0.32600
0.5,0.32600
0.5,0.32800
1.3,0.33000
-1.1,0.33200
0.3,0.33400
0.7,0.33600
1.3,0.33600
2.2,0.33800
-1.2,0.34000
-1.4,0.34200
0.9,0.34400
0.4,0.34400
2.7,0.34600
-0.1,0.34800
0.3,0.35000
1.7,0.35200
0.4,0.35400
0.6,0.35400
1.1,0.35600
1.3,0.35800
1.9,0.36000
-0.8,0.36200
0.6,0.36400
0.7,0.36600
2.3,0.36600
1.4,0.36800
-0.5,0.37000
1.7,0.37200
-0.9,0.37400
0.9,0.37600
0.7,0.37600
0.3,0.37800
1.1,0.38000
0.5,0.38200
0.1,0.38400
0.8,0.38400
0.9,0.38600
0.2,0.38800
2.9,0.39000
0.5,0.39200
2.9,0.39400
2.4,0.39600
1.4,0.39800
3.9,0.39800
1.3,0.40000
2.7,0.40200
3.7,0.40400
3.4,0.40600
5.9,0.40800
4.1,0.40800
3.9,0.41000
7.5,0.41200
7.3,0.41400
10.4,0.41600
8.8,0.41600
8.3,0.41800
9.4,0.42000
10.9,0.42200
11.8,0.42400
11.6,0.42400
11.1,0.42600
13.3,0.42800
12.2,0.43000
13.5,0.43200
15.2,0.43200
14.4,0.43400
16.6,0.43600
16.8,0.43800
18.5,0.44000
18.8,0.44200
17.4,0.44200
19.2,0.44400
19.5,0.44600
20.2,0.44800
21.1,0.45000
22.7,0.45200
21.7,0.45400
23.2,0.45400
23.8,0.45600
23.1,0.45800
25.5,0.46000
24.8,0.46200
26.7,0.46400
25.4,0.46400
29.5,0.46600
29.4,0.46800
26.8,0.47000
28.3,0.47200
28.1,0.47200
27.9,0.47400
29.5,0.47600
31.5,0.47800
33.0,0.48000
31.4,0.48200
32.7,0.48200
32.8,0.48400
32.6,0.48600
34.3,0.48800
35.4,0.49000
35.2,0.49200
35.9,0.49400
35.9,0.49400
37.1,0.49600
37.7,0.49800
40.2,0.50000
41.1,0.50200
39.2,0.50400
41.9,0.50400
39.1,0.50600
41.0,0.50800
42.6,0.51000
45.0,0.51200
45.8,0.51200
45.8,0.51400
45.4,0.51600
45.3,0.51800
45.9,0.52000
47.6,0.52200
48.4,0.52200
49.5,0.52400
47.9,0.52600
48.3,0.52800
50.0,0.53000
49.6,0.53200
51.9,0.53400
52.5,0.53400
51.1,0.53600
54.8,0.53800
51.5,0.54000
54.3,0.54200
56.0,0.54400
57.9,0.54400
58.5,0.54600
57.9,0.54800
58.0,0.55000
59.8,0.55200
58.1,0.55200
58.8,0.55400
59.4,0.55600
61.0,0.55800
60.9,0.56000
62.7,0.56200
62.4,0.56200
63.3,0.56400
65.4,0.56600
65.1,0.56800
66.4,0.57000
68.4,0.57200
68.2,0.57400
66.8,0.57400
67.4,0.57600
70.0,0.57800
69.1,0.58000
71.4,0.58200
70.7,0.58400
71.2,0.58400
72.2,0.58600
71.7,0.58800
74.3,0.59000
75.0,0.59200
74.4,0.59200
76.0,0.59400
74.3,0.59600
75.9,0.59800
77.1,0.60000
77.7,0.60200
79.1,0.60200
79.7,0.60400
79.6,0.60600
80.6,0.60800
79.0,0.61000
81.6,0.61000
83.0,0.61400
85.8,0.61400
85.9,0.61600
83.4,0.61800
82.8,0.62000
85.0,0.62200
87.5,0.62200
89.7,0.62400
89.0,0.62600
88.6,0.62800
89.2,0.63000
88.5,0.63200
91.9,0.63200
92.5,0.63400
94.0,0.63600
93.6,0.63800
94.5,0.64000
94.0,0.64000
94.4,0.64200
94.9,0.64400
98.9,0.64600
96.1,0.64800
99.5,0.65000
98.3,0.65000
99.9,0.65200
98.6,0.65400
100.7,0.65600
101.1,0.65800
101.5,0.66000
102.2,0.66200
101.4,0.66200
100.1,0.66400
103.4,0.66600
105.6,0.66800
104.6,0.67000
105.5,0.67200
106.4,0.67200
106.1,0.67400
108.7,0.67600
109.4,0.67800
109.6,0.68000
110.3,0.68000
110.4,0.68200
109.9,0.68400
110.4,0.68600
111.7,0.68800
111.3,0.69000
115.3,0.69000
113.9,0.69400
113.0,0.69400
114.8,0.69600
114.1,0.69800
114.4,0.70000
116.5,0.70200
119.1,0.70400
121.4,0.70400
118.7,0.70600
121.2,0.70800
119.6,0.71000
122.7,0.71200
124.0,0.71200
123.3,0.71400
124.0,0.71600
124.0,0.71800
124.0,0.72000
125.1,0.72200
126.8,0.72200
127.5,0.72400
129.5,0.72600
128.8,0.72800
128.4,0.73000
129.7,0.73200
129.6,0.73400
132.1,0.73400
131.1,0.73600
130.7,0.73800
130.6,0.74000
130.7,0.74200
131.9,0.74200
134.6,0.74400
133.4,0.74600
135.3,0.74800
135.2,0.75000
138.8,0.75200
137.6,0.75200
137.3,0.75400
139.7,0.75600
139.1,0.75800
141.2,0.76000
140.5,0.76000
142.3,0.76200
143.8,0.76400
143.6,0.76600
142.8,0.76800
144.6,0.76800
143.5,0.77000
146.4,0.77200
146.4,0.77400
146.9,0.77600
146.6,0.77800
147.1,0.77800
149.2,0.78200
150.6,0.78200
148.8,0.78400
152.2,0.78600
150.0,0.78800
152.4,0.79000
152.4,0.79200
153.1,0.79200
152.1,0.79400
153.5,0.79600
156.0,0.79800
153.8,0.80000
157.0,0.80000
158.7,0.80200
157.0,0.80400
158.4,0.80600
159.2,0.80800
161.8,0.81000
162.9,0.81000
162.2,0.81200
161.7,0.81400
165.1,0.81600
164.3,0.81800
165.3,0.82000
165.4,0.82200
166.9,0.82200
167.5,0.82400
166.8,0.82600
166.4,0.82800
167.2,0.83000
167.5,0.83200
169.8,0.83200
169.6,0.83400
170.7,0.83600
173.1,0.83800
168.9,0.84000
173.2,0.84000
172.3,0.84200
173.5,0.84400
175.5,0.84600
176.7,0.84800
175.2,0.85000
175.1,0.85000
175.9,0.85200
177.2,0.85400
179.2,0.85600
179.1,0.85800
181.6,0.86000
181.0,0.86200
181.1,0.86400
180.8,0.86400
181.9,0.86600
183.2,0.86800
184.0,0.87000
184.7,0.87200
183.7,0.87200
183.8,0.87400
186.5,0.87600
187.0,0.87800
189.8,0.88000
190.1,0.88000
188.7,0.88200
190.2,0.88400
189.0,0.88600
192.3,0.88800
192.3,0.89000
191.2,0.89200
192.1,0.89400
191.8,0.89400
194.0,0.89600
194.2,0.89800
196.8,0.90000
198.0,0.90200
196.0,0.90400
198.4,0.90400
198.6,0.90600
198.4,0.90800
200.4,0.91000
201.4,0.91200
200.0,0.91200
201.0,0.91400
201.3,0.91600
202.7,0.91800
202.7,0.92000
203.0,0.92000
206.6,0.92200
205.4,0.92400
207.9,0.92600
205.9,0.92800
207.1,0.93000
207.3,0.93000
206.9,0.93400
210.0,0.93400
208.5,0.93600
210.1,0.93800
211.5,0.94000
211.4,0.94200
213.2,0.94400
213.4,0.94400
213.6,0.94600
214.1,0.94800
215.3,0.95000
214.9,0.95200
216.6,0.95200
215.4,0.95400
217.6,0.95600
218.5,0.95800
218.8,0.96000
220.9,0.96000
220.6,0.96200
222.2,0.96400
221.9,0.96600
221.9,0.96800
224.1,0.97000
224.7,0.97000
224.7,0.97200
224.2,0.97400
224.9,0.97600
228.8,0.97800
226.8,0.98000
229.2,0.98200
229.5,0.98200
228.8,0.98400
230.1,0.98600
232.5,0.98800
229.7,0.99000
232.1,0.99200
233.2,0.99200
234.6,0.99400
234.7,0.99600
233.9,0.99800
236.6,1.00000
236.9,1.00000
238.4,1.00200
238.0,1.00400
236.9,1.00600
239.3,1.00800
238.0,1.01000
241.8,1.01000
241.7,1.01200
241.1,1.01400
242.8,1.01600
241.5,1.01800
243.0,1.02000
244.4,1.02200
244.6,1.02200
245.5,1.02400
245.1,1.02600
245.1,1.02800
246.2,1.03000
246.2,1.03200
247.5,1.03200
249.6,1.03400
251.1,1.03600
251.9,1.03800
252.2,1.04000
251.4,1.04000
252.5,1.04200
253.4,1.04400
254.5,1.04600
255.3,1.04800
256.3,1.05000
256.0,1.05000
257.9,1.05200
258.8,1.05400
259.5,1.05600
257.9,1.05800
260.4,1.06000
258.9,1.06200
260.2,1.06400
260.4,1.06400
261.4,1.06600
263.7,1.06800
265.2,1.07000
266.9,1.07200
263.8,1.07200
265.8,1.07400
265.6,1.07600
266.0,1.07800
268.3,1.08000
270.6,1.08000
269.6,1.08200
269.2,1.08400
271.2,1.08600
270.1,1.08800
272.3,1.09000
272.4,1.09000
273.2,1.09200
273.0,1.09400
273.8,1.09600
274.9,1.09800
273.9,1.10000
276.9,1.10200
276.7,1.10200
277.5,1.10400
277.5,1.10600
278.4,1.10800
278.7,1.11000
278.2,1.11200
279.8,1.11200
282.4,1.11400
284.0,1.11600
282.2,1.11800
283.1,1.12000
284.9,1.12000
285.9,1.12200
285.8,1.12400
284.6,1.12600
287.1,1.12800
287.7,1.13000
288.8,1.13000
288.7,1.13400
287.3,1.13400
291.7,1.13600
292.5,1.13800
292.4,1.14000
292.1,1.14200
293.6,1.14400
294.3,1.14400
294.8,1.14600
294.8,1.14800
296.8,1.15000
295.8,1.15200
296.5,1.15200
295.6,1.15400
299.0,1.15600
300.8,1.15800
300.6,1.16000
301.9,1.16200
297.7,1.16200
299.9,1.16400
301.0,1.16600
302.4,1.16800
305.3,1.17000
303.0,1.17200
303.4,1.17400
305.2,1.17400
305.5,1.17600
307.7,1.17800
307.2,1.18000
309.7,1.18200
310.9,1.18400
310.5,1.18400
310.5,1.18600
309.1,1.18800
310.3,1.19000
312.9,1.19200
313.6,1.19200
315.0,1.19400
315.7,1.19600
313.2,1.19800
314.6,1.20000
314.4,1.20200
316.2,1.20200
320.1,1.20400
317.1,1.20600
318.2,1.20800
319.3,1.21000
320.0,1.21200
321.5,1.21400
322.4,1.21400
321.3,1.21600
323.8,1.21800
324.3,1.22000
324.1,1.22200
325.2,1.22400
328.5,1.22400
325.2,1.22600
328.7,1.22800
328.3,1.23000
327.2,1.23200
327.3,1.23200
329.7,1.23400
331.1,1.23600
333.9,1.23800
330.2,1.24000
331.1,1.24200
332.9,1.24200
333.2,1.24600
334.7,1.24600
336.0,1.24800
335.6,1.25000
335.6,1.25200
336.7,1.25400
336.6,1.25400
339.5,1.25600
337.4,1.25800
338.3,1.26000
338.3,1.26200
339.4,1.26400
340.3,1.26400
340.9,1.26600
343.6,1.26800
344.2,1.27000
344.3,1.27200
345.2,1.27200
345.5,1.27400
345.3,1.27600
344.8,1.27800
347.3,1.28000
348.7,1.28200
348.5,1.28200
349.6,1.28400
351.3,1.28600
350.2,1.28800
351.3,1.29000
353.9,1.29000
354.7,1.29400
353.8,1.29400
352.9,1.29600
355.7,1.29800
357.2,1.30000
357.8,1.30200
357.8,1.30400
358.3,1.30400
358.4,1.30600
356.9,1.30800
357.5,1.31000
361.0,1.31200
358.9,1.31200
362.6,1.31400
361.3,1.31600
361.0,1.31800
363.0,1.32000
364.6,1.32200
367.8,1.32200
367.7,1.32400
363.8,1.32600
367.9,1.32800
368.4,1.33000
368.9,1.33200
369.2,1.33400
369.3,1.33400
371.1,1.33600
371.2,1.33800
371.1,1.34000
372.7,1.34200
372.0,1.34400
374.0,1.34400
375.1,1.34600
375.6,1.34800
376.5,1.35000
374.2,1.35200
378.7,1.35200
379.2,1.35400
377.1,1.35600
379.4,1.35800
380.7,1.36000
381.3,1.36200
381.6,1.36200
380.9,1.36400
382.3,1.36600
382.7,1.36800
383.4,1.37000
385.0,1.37200
386.2,1.37400
387.4,1.37400
385.5,1.37600
386.0,1.37800
391.0,1.38000
389.5,1.38200
389.5,1.38400
388.5,1.38400
388.6,1.38600
391.2,1.38800
390.1,1.39000
392.4,1.39200
394.0,1.39200
395.1,1.39400
394.3,1.39600
394.6,1.39800
395.3,1.40000
397.5,1.40200
396.7,1.40200
399.7,1.40400
396.3,1.40600
398.8,1.40800
399.6,1.41000
400.9,1.41200
402.7,1.41400
402.5,1.41400
402.5,1.41600
403.3,1.41800
403.2,1.42000
404.1,1.42200
405.9,1.42400
404.5,1.42400
405.1,1.42600
407.2,1.42800
410.2,1.43000
409.9,1.43200
408.1,1.43200
411.3,1.43400
411.2,1.43600
413.6,1.43800
413.1,1.44000
413.3,1.44200
414.1,1.44200
413.2,1.44400
414.8,1.44600
416.2,1.44800
417.8,1.45000
416.9,1.45200
417.4,1.45400
416.8,1.45400
420.4,1.45600
419.8,1.45800
422.2,1.46000
420.7,1.46200
421.5,1.46400
423.5,1.46400
424.0,1.46600
426.7,1.46800
426.3,1.47000
425.0,1.47200
425.6,1.47200
426.6,1.47400
429.2,1.47600
428.5,1.47800
428.3,1.48000
431.0,1.48200
429.9,1.48200
428.8,1.48400
432.1,1.48600
431.7,1.48800
434.5,1.49000
434.0,1.49200
433.8,1.49400
435.0,1.49400
435.1,1.49600
437.0,1.49800
437.7,1.50000
437.5,1.50200
439.9,1.50400
440.6,1.50400
439.3,1.50600
440.7,1.50800
439.2,1.51000
441.5,1.51200
441.8,1.51200
443.7,1.51400
445.1,1.51600
443.7,1.51800
444.3,1.52000
444.7,1.52200
445.8,1.52200
448.0,1.52600
447.8,1.52600
449.9,1.52800
445.8,1.53000
448.6,1.53200
452.6,1.53400
450.5,1.53600
452.2,1.53600
452.7,1.53800
451.3,1.54000
455.0,1.54200
454.8,1.54400
455.9,1.54400
456.2,1.54600
456.6,1.54800
458.1,1.55000
457.4,1.55200
455.8,1.55400
458.4,1.55400
460.2,1.55600
461.1,1.55800
459.4,1.56000
461.2,1.56200
462.9,1.56400
461.7,1.56600
464.5,1.56600
468.4,1.56800
465.9,1.57000
468.5,1.57200
467.7,1.57400
467.6,1.57600
467.9,1.57600
467.6,1.57800
469.9,1.58000
470.8,1.58200
469.2,1.58400
473.7,1.58400
471.3,1.58600
473.3,1.58800
474.0,1.59000
473.7,1.59200
476.4,1.59200
476.2,1.59400
477.2,1.59600
478.6,1.59800
476.0,1.60000
479.6,1.60200
479.3,1.60200
480.3,1.60400
480.5,1.60600
482.7,1.60800
482.2,1.61000
482.2,1.61200
484.3,1.61400
482.7,1.61400
483.9,1.61600
486.5,1.61800
485.1,1.62000
486.8,1.62200
487.9,1.62400
487.5,1.62400
488.1,1.62600
13.6,1.62800


