""
"Test Method","UG Lab Glass 3 Pt Bend mm_N.msm"
"Sample I. D.","Radial.mss"
"Specimen Number","10"

"Load (N)","Crosshead (mm)"

-1.5,0.00000
-0.4,0.00000
-2.1,0.00200
-2.9,0.00200
-0.7,0.00400
0.0,0.00400
2.0,0.00400
0.3,0.00600
-1.3,0.00600
-0.3,0.00800
-1.1,0.00800
-1.4,0.01000
-2.7,0.01000
-1.6,0.01000
-2.8,0.01200
-1.3,0.01200
-0.9,0.01200
1.1,0.01400
-0.3,0.01400
-1.0,0.01600
-0.9,0.01600
0.9,0.01800
-1.2,0.01800
1.2,0.02000
-0.9,0.02000
-1.3,0.02000
-0.6,0.02200
-1.0,0.02200
0.5,0.02200
0.1,0.02400
-2.0,0.02400
-0.4,0.02600
0.3,0.02600
0.5,0.02800
-1.1,0.02800
-3.2,0.02800
0.1,0.03000
1.4,0.03000
-0.3,0.03200
-1.7,0.03200
-1.4,0.03400
-3.5,0.03400
-1.0,0.03400
-1.5,0.03600
-0.6,0.03600
-1.0,0.03600
-1.4,0.03800
-0.8,0.03800
-0.1,0.04000
-1.3,0.04000
-0.7,0.04200
-3.1,0.04200
-0.8,0.04400
-0.9,0.04400
-2.0,0.04400
-1.1,0.04600
-2.9,0.04600
-0.6,0.04600
-1.2,0.04800
-1.8,0.04800
-2.0,0.05000
-2.2,0.05000
0.6,0.05200
0.7,0.05200
-2.3,0.05200
-1.0,0.05400
-2.2,0.05400
-0.4,0.05600
-1.6,0.05600
-1.6,0.05800
-1.0,0.05800
-2.0,0.05800
-1.9,0.06000
-0.3,0.06000
-1.2,0.06200
-1.9,0.06200
-2.5,0.06200
-1.4,0.06400
-0.2,0.06400
-0.7,0.06600
-0.2,0.06600
-1.3,0.06800
-0.6,0.06800
-0.3,0.06800
-0.6,0.07000
0.6,0.07000
-1.4,0.07200
-1.8,0.07200
0.1,0.07400
-0.1,0.07400
-3.1,0.07400
-2.0,0.07600
0.3,0.07600
-0.2,0.07600
-1.6,0.07800
-1.9,0.07800
-2.9,0.08000
-1.8,0.08000
-1.1,0.08200
-1.1,0.08200
-0.6,0.08400
-0.9,0.08400
-1.8,0.08400
-0.3,0.08600
-1.0,0.08600
-0.3,0.08800
-0.8,0.08800
-0.7,0.09000
-0.6,0.09000
0.4,0.09000
1.7,0.09200
0.4,0.09200
-1.9,0.09200
0.9,0.09400
-0.1,0.09400
0.2,0.09600
-1.0,0.09600
0.1,0.09800
-2.0,0.09800
-1.5,0.10000
-1.3,0.10000
-2.8,0.10000
-0.7,0.10200
-1.7,0.10200
-0.2,0.10200
-0.7,0.10400
-0.5,0.10600
-2.1,0.10600
0.4,0.10600
-0.5,0.10800
-0.6,0.10800
-0.8,0.10800
-1.3,0.11000
-2.7,0.11000
0.1,0.11200
-1.3,0.11200
-0.6,0.11400
0.1,0.11400
-0.4,0.11400
1.3,0.11600
1.5,0.11600
0.7,0.11600
1.9,0.11800
-1.9,0.11800
-0.8,0.12000
0.6,0.12000
-0.6,0.12200
-0.7,0.12200
-0.8,0.12400
0.2,0.12400
0.2,0.12400
-2.2,0.12600
-0.8,0.12600
-1.2,0.12600
1.4,0.12800
0.0,0.13000
-0.5,0.13000
-0.8,0.13000
-1.4,0.13200
0.3,0.13200
-1.8,0.13200
-0.9,0.13400
-1.0,0.13400
-2.9,0.13600
-1.6,0.13600
1.5,0.13800
-1.1,0.13800
-0.9,0.13800
-0.1,0.14000
0.3,0.14000
-1.1,0.14200
-1.9,0.14200
-2.3,0.14200
-0.7,0.14400
-1.7,0.14400
-1.2,0.14600
-0.6,0.14600
0.8,0.14800
0.2,0.14800
-0.7,0.14800
2.7,0.15000
0.3,0.15000
0.7,0.15200
-0.8,0.15200
-1.0,0.15400
-2.2,0.15400
-0.8,0.15400
-0.4,0.15600
-1.8,0.15600
-1.6,0.15600
0.1,0.15800
0.7,0.15800
-0.4,0.16000
0.7,0.16000
-1.3,0.16200
-0.1,0.16200
1.2,0.16400
-0.6,0.16400
-2.6,0.16400
-1.8,0.16600
-1.5,0.16600
-1.0,0.16600
-1.5,0.16800
-1.8,0.16800
-0.8,0.17000
-0.6,0.17000
-1.6,0.17200
0.1,0.17200
0.1,0.17200
1.4,0.17400
-0.5,0.17400
-0.9,0.17600
-0.4,0.17600
0.4,0.17800
0.0,0.17800
0.6,0.17800
-0.4,0.18000
0.5,0.18000
-2.9,0.18000
1.1,0.18200
-0.8,0.18200
1.0,0.18400
1.7,0.18400
0.6,0.18600
0.4,0.18600
-0.7,0.18800
1.0,0.18800
0.8,0.18800
-0.6,0.19000
0.4,0.19000
0.5,0.19200
1.0,0.19200
1.8,0.19400
1.5,0.19400
-1.2,0.19400
-0.6,0.19600
1.1,0.19600
-0.7,0.19600
-1.8,0.19800
-0.5,0.19800
-1.7,0.20000
0.1,0.20000
1.2,0.20200
1.8,0.20200
2.0,0.20400
-0.2,0.20400
0.9,0.20400
0.8,0.20600
2.7,0.20600
2.4,0.20600
0.8,0.20800
-0.4,0.21000
3.5,0.21000
3.3,0.21000
1.6,0.21200
3.7,0.21200
0.3,0.21200
4.0,0.21400
2.6,0.21400
4.7,0.21600
6.0,0.21600
5.0,0.21800
5.9,0.21800
6.8,0.21800
4.7,0.22000
5.0,0.22000
4.6,0.22000
6.7,0.22200
7.4,0.22200
8.1,0.22400
7.9,0.22400
7.0,0.22600
8.2,0.22600
10.1,0.22800
8.6,0.22800
9.7,0.22800
8.8,0.23000
10.8,0.23000
12.0,0.23000
11.5,0.23200
9.6,0.23400
10.3,0.23400
12.3,0.23400
12.5,0.23600
12.7,0.23600
13.0,0.23600
12.8,0.23800
14.7,0.23800
15.1,0.24000
13.7,0.24000
12.6,0.24200
13.6,0.24200
15.0,0.24200
15.1,0.24400
14.9,0.24400
14.1,0.24400
14.3,0.24600
15.8,0.24600
19.1,0.24800
16.8,0.24800
15.2,0.25000
17.7,0.25000
17.7,0.25200
18.6,0.25200
18.7,0.25200
16.5,0.25400
20.5,0.25400
19.2,0.25400
19.9,0.25600
19.6,0.25600
19.9,0.25800
21.4,0.25800
19.4,0.26000
23.7,0.26000
21.5,0.26000
21.2,0.26200
21.2,0.26200
20.9,0.26400
22.9,0.26400
22.7,0.26600
23.4,0.26600
20.8,0.26600
20.1,0.26800
23.0,0.26800
25.6,0.26800
25.3,0.27000
24.5,0.27000
24.3,0.27200
24.9,0.27200
25.1,0.27400
26.6,0.27400
25.9,0.27600
25.6,0.27600
25.8,0.27600
26.8,0.27800
29.0,0.27800
26.4,0.28000
28.1,0.28000
28.2,0.28200
30.0,0.28200
32.0,0.28200
29.5,0.28400
30.7,0.28400
30.4,0.28400
29.4,0.28600
30.4,0.28600
30.5,0.28800
30.6,0.28800
32.1,0.29000
32.2,0.29000
32.3,0.29200
34.8,0.29200
34.8,0.29200
32.4,0.29400
36.6,0.29400
36.1,0.29600
34.8,0.29600
33.4,0.29800
32.3,0.29800
33.6,0.29800
34.9,0.30000
36.1,0.30000
36.7,0.30000
35.5,0.30200
36.1,0.30200
38.4,0.30400
38.9,0.30400
38.9,0.30600
39.9,0.30600
39.2,0.30800
39.7,0.30800
38.6,0.30800
38.0,0.31000
36.2,0.31000
38.1,0.31000
38.5,0.31200
38.6,0.31200
38.9,0.31400
40.9,0.31400
40.4,0.31600
43.0,0.31600
43.4,0.31600
43.2,0.31800
41.1,0.31800
39.8,0.32000
44.5,0.32000
43.3,0.32200
43.8,0.32200
44.3,0.32200
43.2,0.32400
48.7,0.32400
47.6,0.32600
46.4,0.32600
46.1,0.32600
46.7,0.32800
48.4,0.32800
47.3,0.33000
47.1,0.33000
45.7,0.33200
48.1,0.33200
48.5,0.33200
49.5,0.33400
49.0,0.33400
49.1,0.33400
49.1,0.33600
51.1,0.33800
49.9,0.33800
50.6,0.33800
49.4,0.34000
50.4,0.34000
52.0,0.34000
52.8,0.34200
53.0,0.34200
51.1,0.34400
53.3,0.34400
51.4,0.34600
54.7,0.34600
54.3,0.34600
54.3,0.34800
55.6,0.34800
55.2,0.35000
57.0,0.35000
56.7,0.35000
57.6,0.35200
56.2,0.35200
55.6,0.35400
57.8,0.35400
56.2,0.35600
57.5,0.35600
58.9,0.35600
57.2,0.35800
58.8,0.35800
60.2,0.36000
60.1,0.36000
61.9,0.36200
60.3,0.36200
62.0,0.36200
62.1,0.36400
61.5,0.36400
60.3,0.36400
60.2,0.36600
61.5,0.36600
61.6,0.36800
61.8,0.36800
62.7,0.37000
63.0,0.37000
63.7,0.37200
64.9,0.37200
63.3,0.37200
66.1,0.37400
62.5,0.37400
64.0,0.37400
63.3,0.37600
65.2,0.37600
64.6,0.37800
65.4,0.37800
65.6,0.38000
65.7,0.38000
67.8,0.38000
66.7,0.38200
66.4,0.38200
67.8,0.38400
67.6,0.38400
68.4,0.38600
68.6,0.38600
68.8,0.38600
67.7,0.38800
69.2,0.38800
69.2,0.38800
68.8,0.39000
70.9,0.39000
70.5,0.39200
73.1,0.39200
69.8,0.39400
72.0,0.39400
72.7,0.39600
72.3,0.39600
71.4,0.39600
73.1,0.39800
73.5,0.39800
73.4,0.39800
74.4,0.40000
76.7,0.40200
73.7,0.40200
76.5,0.40200
77.8,0.40400
77.4,0.40400
77.9,0.40400
76.8,0.40600
78.9,0.40600
79.3,0.40800
77.5,0.40800
77.2,0.41000
79.7,0.41000
79.8,0.41000
78.3,0.41200
78.3,0.41200
81.2,0.41400
82.0,0.41400
82.0,0.41400
80.5,0.41600
81.4,0.41600
80.4,0.41800
82.3,0.41800
80.8,0.42000
81.7,0.42000
82.2,0.42000
83.0,0.42200
84.0,0.42200
82.8,0.42400
83.7,0.42400
84.3,0.42600
83.3,0.42600
86.3,0.42600
84.2,0.42800
86.3,0.42800
85.2,0.42800
85.0,0.43000
85.9,0.43000
85.7,0.43200
87.1,0.43200
87.3,0.43400
86.3,0.43400
89.0,0.43600
88.2,0.43600
89.4,0.43600
90.3,0.43800
89.9,0.43800
91.7,0.43800
91.3,0.44000
92.0,0.44000
91.2,0.44200
90.2,0.44200
91.5,0.44400
91.6,0.44400
92.1,0.44400
91.2,0.44600
93.0,0.44600
94.0,0.44800
93.1,0.44800
94.0,0.45000
93.7,0.45000
92.9,0.45000
94.9,0.45200
95.0,0.45200
95.0,0.45400
95.6,0.45400
95.5,0.45400
96.2,0.45600
97.4,0.45600
98.2,0.45800
98.2,0.45800
98.1,0.46000
97.6,0.46000
99.4,0.46000
99.5,0.46200
99.2,0.46200
97.6,0.46400
96.8,0.46400
100.3,0.46600
100.0,0.46600
100.7,0.46600
101.8,0.46800
98.8,0.46800
102.6,0.46800
1.0,0.47000


