""
"Test Method","UG Lab Glass 3 Pt Bend mm_N.msm"
"Sample I. D.","Water.mss"
"Specimen Number","1"

"Load (N)","Crosshead (mm)"

1.4,0.00000
1.3,0.00200
1.3,0.00200
1.7,0.00400
-0.5,0.00400
1.7,0.00400
2.3,0.00600
0.7,0.00600
1.0,0.00800
0.1,0.00800
3.4,0.01000
1.3,0.01000
-0.5,0.01000
1.2,0.01200
1.7,0.01200
1.3,0.01200
0.6,0.01400
0.8,0.01400
-2.0,0.01600
-0.2,0.01600
2.7,0.01800
1.4,0.01800
2.1,0.02000
0.7,0.02000
-0.1,0.02000
1.3,0.02200
1.9,0.02200
0.1,0.02200
0.1,0.02400
1.3,0.02600
1.6,0.02600
1.6,0.02600
2.4,0.02800
-0.4,0.02800
1.5,0.02800
0.7,0.03000
1.7,0.03000
1.3,0.03200
0.8,0.03200
0.7,0.03400
-0.9,0.03400
2.8,0.03400
1.0,0.03600
0.5,0.03600
1.5,0.03800
1.3,0.03800
1.0,0.03800
-0.2,0.04000
0.3,0.04000
0.2,0.04200
-0.8,0.04200
2.0,0.04400
1.5,0.04400
1.0,0.04400
1.4,0.04600
0.6,0.04600
1.7,0.04800
0.9,0.04800
0.2,0.05000
0.8,0.05000
0.7,0.05000
6.4,0.05200
2.0,0.05200
-0.2,0.05200
1.9,0.05400
-0.3,0.05400
1.6,0.05600
2.1,0.05600
0.9,0.05800
1.7,0.05800
1.6,0.06000
2.5,0.06000
2.0,0.06000
2.0,0.06200
0.1,0.06200
2.6,0.06200
1.3,0.06400
0.4,0.06600
2.0,0.06600
0.4,0.06600
-1.4,0.06800
-0.8,0.06800
3.9,0.06800
1.8,0.07000
2.0,0.07000
1.2,0.07200
0.8,0.07200
2.6,0.07400
1.0,0.07400
-0.6,0.07600
0.7,0.07600
0.2,0.07600
0.6,0.07800
1.4,0.07800
0.2,0.07800
3.1,0.08000
1.5,0.08200
2.8,0.08200
2.2,0.08200
1.5,0.08400
2.6,0.08400
0.4,0.08400
1.0,0.08600
1.5,0.08600
2.9,0.08800
1.7,0.08800
-0.1,0.09000
1.0,0.09000
1.8,0.09000
1.5,0.09200
3.0,0.09200
1.7,0.09400
3.3,0.09400
2.6,0.09400
1.7,0.09600
-0.2,0.09600
0.1,0.09800
2.2,0.09800
1.7,0.10000
-0.4,0.10000
1.0,0.10000
0.3,0.10200
1.8,0.10200
3.9,0.10400
1.7,0.10400
1.8,0.10600
2.3,0.10600
1.2,0.10600
2.0,0.10800
1.4,0.10800
-0.6,0.10800
1.3,0.11000
0.3,0.11000
2.1,0.11200
0.3,0.11200
1.8,0.11400
3.3,0.11400
1.6,0.11600
2.4,0.11600
1.7,0.11600
1.9,0.11800
1.7,0.11800
-0.2,0.12000
3.4,0.12000
0.1,0.12200
1.9,0.12200
1.0,0.12200
1.6,0.12400
1.3,0.12400
3.9,0.12400
3.7,0.12600
2.4,0.12600
2.7,0.12800
2.8,0.12800
4.4,0.13000
2.7,0.13000
2.3,0.13200
0.5,0.13200
0.5,0.13200
0.6,0.13400
-0.2,0.13400
-0.2,0.13400
0.3,0.13600
0.3,0.13600
0.3,0.13800
1.7,0.13800
1.0,0.14000
1.2,0.14000
-1.0,0.14000
0.6,0.14200
0.4,0.14200
1.3,0.14400
-1.3,0.14400
-0.3,0.14600
1.3,0.14600
2.2,0.14600
1.5,0.14800
0.7,0.14800
0.2,0.14800
1.9,0.15000
0.8,0.15000
1.2,0.15200
2.3,0.15200
1.8,0.15400
2.5,0.15400
3.4,0.15600
1.8,0.15600
1.1,0.15600
0.9,0.15800
2.0,0.15800
3.2,0.15800
2.0,0.16000
2.6,0.16000
1.7,0.16200
3.3,0.16200
4.2,0.16400
2.3,0.16400
3.9,0.16400
3.1,0.16600
4.3,0.16600
6.1,0.16800
4.5,0.16800
5.0,0.17000
6.1,0.17000
5.9,0.17000
7.7,0.17200
6.0,0.17200
5.6,0.17200
5.1,0.17400
4.4,0.17400
7.9,0.17600
6.6,0.17600
5.8,0.17800
8.6,0.17800
7.6,0.18000
8.0,0.18000
9.5,0.18000
8.2,0.18200
9.5,0.18200
10.7,0.18200
11.3,0.18400
12.3,0.18400
9.9,0.18600
9.5,0.18600
9.9,0.18800
10.1,0.18800
10.7,0.18800
11.2,0.19000
12.1,0.19000
12.2,0.19200
13.3,0.19200
13.1,0.19400
15.9,0.19400
12.2,0.19400
12.1,0.19600
15.8,0.19600
14.3,0.19800
13.9,0.19800
15.5,0.19800
14.3,0.20000
16.6,0.20000
16.5,0.20200
17.0,0.20200
17.7,0.20400
17.7,0.20400
19.1,0.20400
17.7,0.20600
16.0,0.20600
16.7,0.20800
15.7,0.20800
18.9,0.21000
18.3,0.21000
18.1,0.21000
19.1,0.21200
20.8,0.21200
22.1,0.21400
20.2,0.21400
22.2,0.21400
21.0,0.21600
22.2,0.21600
22.1,0.21800
21.4,0.21800
20.7,0.22000
22.5,0.22000
22.4,0.22000
22.3,0.22200
23.6,0.22200
23.6,0.22400
24.4,0.22400
23.3,0.22600
24.3,0.22600
27.4,0.22600
24.3,0.22800
25.8,0.22800
26.5,0.22800
23.8,0.23000
26.1,0.23000
24.8,0.23200
27.2,0.23200
27.4,0.23400
26.9,0.23400
27.4,0.23600
30.2,0.23600
29.5,0.23600
30.2,0.23800
28.8,0.23800
32.1,0.23800
31.0,0.24000
30.8,0.24000
30.2,0.24200
30.2,0.24200
32.5,0.24400
31.4,0.24400
32.4,0.24400
31.3,0.24600
31.9,0.24600
32.2,0.24800
37.0,0.24800
35.5,0.25000
34.7,0.25000
34.1,0.25000
34.1,0.25200
34.7,0.25200
34.8,0.25200
35.6,0.25400
36.2,0.25400
36.3,0.25600
37.5,0.25600
36.0,0.25800
39.0,0.25800
39.5,0.26000
39.1,0.26000
40.0,0.26000
39.3,0.26200
38.6,0.26200
39.6,0.26200
39.6,0.26400
38.3,0.26400
39.5,0.26600
39.8,0.26600
41.2,0.26800
40.9,0.26800
43.1,0.26800
42.6,0.27000
42.7,0.27000
44.0,0.27200
43.6,0.27200
44.8,0.27400
45.9,0.27400
43.1,0.27400
44.5,0.27600
44.3,0.27600
46.2,0.27600
44.8,0.27800
45.5,0.27800
46.7,0.28000
46.3,0.28000
45.9,0.28200
48.5,0.28200
47.5,0.28400
47.9,0.28400
47.4,0.28400
45.2,0.28600
46.9,0.28600
47.2,0.28600
48.1,0.28800
51.0,0.28800
49.3,0.29000
50.0,0.29000
51.5,0.29200
52.6,0.29200
51.6,0.29200
51.3,0.29400
53.1,0.29400
51.0,0.29600
51.6,0.29600
53.4,0.29800
54.1,0.29800
54.5,0.29800
53.9,0.30000
53.6,0.30000
52.2,0.30000
56.1,0.30200
57.4,0.30200
55.4,0.30400
56.3,0.30400
55.7,0.30600
54.5,0.30600
57.4,0.30800
57.3,0.30800
57.2,0.30800
55.9,0.31000
55.3,0.31000
56.8,0.31200
57.7,0.31200
58.8,0.31400
58.4,0.31400
59.1,0.31400
58.4,0.31600
61.7,0.31600
60.8,0.31600
59.1,0.31800
58.4,0.31800
61.0,0.32000
61.4,0.32000
61.0,0.32200
61.2,0.32200
59.9,0.32400
61.5,0.32400
64.6,0.32400
65.1,0.32600
64.0,0.32600
61.9,0.32600
65.6,0.32800
65.8,0.32800
65.0,0.33000
64.6,0.33000
64.0,0.33200
65.4,0.33200
66.1,0.33200
67.0,0.33400
66.6,0.33400
66.5,0.33600
68.2,0.33600
70.2,0.33800
69.0,0.33800
68.8,0.34000
69.8,0.34000
70.2,0.34000
69.6,0.34200
71.0,0.34200
68.9,0.34200
69.2,0.34400
70.1,0.34400
71.7,0.34600
72.8,0.34600
72.0,0.34800
73.1,0.34800
72.5,0.34800
73.3,0.35000
73.5,0.35000
73.5,0.35200
72.1,0.35200
72.7,0.35400
73.8,0.35400
75.1,0.35400
74.7,0.35600
74.6,0.35600
74.1,0.35600
75.9,0.35800
77.9,0.35800
77.5,0.36000
77.1,0.36000
77.5,0.36200
78.9,0.36200
79.6,0.36400
78.4,0.36400
79.7,0.36400
79.6,0.36600
79.9,0.36600
79.8,0.36600
79.0,0.36800
81.5,0.36800
80.2,0.37000
80.7,0.37000
83.4,0.37200
83.9,0.37200
83.0,0.37200
82.6,0.37400
83.3,0.37400
82.8,0.37600
82.5,0.37600
83.8,0.37800
83.2,0.37800
81.4,0.37800
85.6,0.38000
86.2,0.38000
86.6,0.38000
85.6,0.38200
85.0,0.38200
86.0,0.38400
87.6,0.38400
87.1,0.38600
86.7,0.38600
86.7,0.38800
88.8,0.38800
86.9,0.38800
89.0,0.39000
88.9,0.39000
89.7,0.39000
89.5,0.39200
91.0,0.39400
90.4,0.39400
91.3,0.39400
89.8,0.39600
89.4,0.39600
90.8,0.39600
90.7,0.39800
90.8,0.39800
90.3,0.40000
92.2,0.40000
92.3,0.40200
93.6,0.40200
91.7,0.40400
94.7,0.40400
93.3,0.40400
93.8,0.40600
95.3,0.40600
95.0,0.40600
94.9,0.40800
96.6,0.40800
96.5,0.41000
97.9,0.41000
96.8,0.41200
96.6,0.41200
96.7,0.41200
98.9,0.41400
99.7,0.41400
98.7,0.41600
98.7,0.41600
100.2,0.41800
99.7,0.41800
98.2,0.41800
99.1,0.42000
99.7,0.42000
99.5,0.42000
99.2,0.42200
102.6,0.42200
101.3,0.42400
101.0,0.42400
101.4,0.42600
100.8,0.42600
103.8,0.42800
102.1,0.42800
103.1,0.42800
101.4,0.43000
101.0,0.43000
104.5,0.43000
104.1,0.43200
104.2,0.43200
105.0,0.43400
104.0,0.43400
106.9,0.43600
108.8,0.43600
106.8,0.43600
106.4,0.43800
107.0,0.43800
107.6,0.44000
109.4,0.44000
108.6,0.44200
109.0,0.44200
109.0,0.44200
108.3,0.44400
109.5,0.44400
109.9,0.44400
110.2,0.44600
111.2,0.44600
111.8,0.44800
110.8,0.44800
111.5,0.45000
112.4,0.45000
111.9,0.45200
112.6,0.45200
113.3,0.45200
115.2,0.45400
113.8,0.45400
113.5,0.45400
113.8,0.45600
114.8,0.45600
116.7,0.45800
116.4,0.45800
116.0,0.46000
115.1,0.46000
117.6,0.46000
118.3,0.46200
118.0,0.46200
117.9,0.46400
117.8,0.46400
118.0,0.46600
118.0,0.46600
119.3,0.46600
118.4,0.46800
118.0,0.46800
120.9,0.46800
121.8,0.47000
119.6,0.47000
120.8,0.47200
121.8,0.47200
121.9,0.47400
122.0,0.47400
121.4,0.47600
121.7,0.47600
122.8,0.47600
123.2,0.47800
123.6,0.47800
122.7,0.48000
125.3,0.48000
124.1,0.48200
126.4,0.48200
126.5,0.48200
125.8,0.48400
126.1,0.48400
125.0,0.48400
127.3,0.48600
126.9,0.48600
127.7,0.48800
127.1,0.48800
126.6,0.49000
128.5,0.49000
130.9,0.49200
129.4,0.49200
130.4,0.49200
130.5,0.49400
129.9,0.49400
131.8,0.49400
129.0,0.49600
129.4,0.49600
131.2,0.49800
131.9,0.49800
133.3,0.50000
131.4,0.50000
131.5,0.50000
132.7,0.50200
132.2,0.50200
134.1,0.50400
134.8,0.50400
132.6,0.50600
136.2,0.50600
134.2,0.50600
134.5,0.50800
133.9,0.50800
134.2,0.51000
133.4,0.51000
134.7,0.51000
134.5,0.51200
137.5,0.51200
136.4,0.51400
136.2,0.51400
137.4,0.51600
139.2,0.51600
137.8,0.51600
138.3,0.51800
137.8,0.51800
138.5,0.52000
139.2,0.52000
139.4,0.52200
141.0,0.52200
137.8,0.52200
138.3,0.52400
140.0,0.52400
141.9,0.52400
142.2,0.52600
141.1,0.52600
142.2,0.52800
142.9,0.52800
144.3,0.53000
142.1,0.53000
143.6,0.53200
143.4,0.53200
141.5,0.53200
143.2,0.53400
144.8,0.53400
145.4,0.53400
146.3,0.53600
146.8,0.53600
146.6,0.53800
148.4,0.53800
147.3,0.54000
148.2,0.54000
147.5,0.54000
148.2,0.54200
148.7,0.54200
148.8,0.54400
148.0,0.54400
148.6,0.54600
149.1,0.54600
151.7,0.54600
150.9,0.54800
149.6,0.54800
149.6,0.55000
153.0,0.55000
153.0,0.55000
152.3,0.55200
151.8,0.55200
153.6,0.55400
154.0,0.55400
153.1,0.55600
152.0,0.55600
154.6,0.55600
153.5,0.55800
152.3,0.55800
156.0,0.55800
155.8,0.56000
155.3,0.56200
154.7,0.56200
155.5,0.56200
158.2,0.56400
155.7,0.56400
156.5,0.56400
156.1,0.56600
157.4,0.56600
157.9,0.56800
157.6,0.56800
156.8,0.57000
159.9,0.57000
159.5,0.57200
159.2,0.57200
160.2,0.57200
158.2,0.57400
160.1,0.57400
159.8,0.57400
162.5,0.57600
160.8,0.57600
160.8,0.57800
161.0,0.57800
161.1,0.58000
161.5,0.58000
164.7,0.58000
165.2,0.58200
164.3,0.58200
164.7,0.58400
164.5,0.58400
166.1,0.58600
164.6,0.58600
164.0,0.58600
165.6,0.58800
163.9,0.58800
166.9,0.58800
165.7,0.59000
167.7,0.59000
168.2,0.59200
169.4,0.59200
170.2,0.59400
169.9,0.59400
169.4,0.59600
168.5,0.59600
169.3,0.59600
170.2,0.59800
170.0,0.59800
168.8,0.59800
171.9,0.60000
171.0,0.60000
170.5,0.60200
173.5,0.60200
170.8,0.60400
171.9,0.60400
172.7,0.60400
174.3,0.60600
175.5,0.60600
173.4,0.60800
172.8,0.60800
172.9,0.61000
174.0,0.61000
177.0,0.61000
172.1,0.61200
173.1,0.61200
177.4,0.61200
176.9,0.61400
178.1,0.61400
178.1,0.61600
179.1,0.61600
178.4,0.61800
179.0,0.61800
179.5,0.62000
178.6,0.62000
179.9,0.62000
176.8,0.62200
180.0,0.62200
179.8,0.62400
179.3,0.62400
179.1,0.62600
180.5,0.62600
181.3,0.62600
183.8,0.62800
183.1,0.62800
183.1,0.62800
181.5,0.63000
183.3,0.63000
185.2,0.63200
182.7,0.63200
183.5,0.63400
184.8,0.63400
186.3,0.63600
187.0,0.63600
187.2,0.63600
185.1,0.63800
186.2,0.63800
186.9,0.63800
189.6,0.64000
187.0,0.64200
187.3,0.64200
188.3,0.64200
188.4,0.64400
5.7,0.64400
5.7,0.64400


